stm32f4xx_hal_msp.c:66:6:HAL_MspInit	16	static
stm32f4xx_hal_msp.c:90:6:HAL_ADC_MspInit	48	static
stm32f4xx_hal_msp.c:126:6:HAL_ADC_MspDeInit	16	static
stm32f4xx_hal_msp.c:156:6:HAL_I2C_MspInit	48	static
stm32f4xx_hal_msp.c:197:6:HAL_I2C_MspDeInit	16	static
stm32f4xx_hal_msp.c:231:6:HAL_TIM_PWM_MspInit	24	static
stm32f4xx_hal_msp.c:247:6:HAL_TIM_MspPostInit	40	static
stm32f4xx_hal_msp.c:279:6:HAL_TIM_PWM_MspDeInit	16	static
