# compile vhdl design source files
vhdl xil_defaultlib  \
"../../../../trabajo2.srcs/sources_1/new/comparador.vhd" \
"../../../../trabajo2.srcs/sim_1/new/comparador_tb.vhd" \

# Do not sort compile order
nosort
