# compile vhdl design source files
vhdl xil_defaultlib  \
"../../../../trabajo2.srcs/sources_1/new/Mquina.vhd" \
"../../../../trabajo2.srcs/sim_1/new/mquina_tb.vhd" \

# Do not sort compile order
nosort
