# compile vhdl design source files
vhdl xil_defaultlib  \
"../../../../Caja Sini 2.srcs/sources_1/new/Caja.vhd" \
"../../../../Caja Sini 2.srcs/sources_1/new/Comparador.vhd" \
"../../../../Caja Sini 2.srcs/sources_1/new/Mquina.vhd" \
"../../../../Caja Sini 2.srcs/sim_1/new/Mquina_tb.vhd" \

# Do not sort compile order
nosort
